compuertas/dl_lab05_deco3a8h/estru_comp/tb_deco3a8h.vcd
$date
  Mon Jun 26 13:36:23 2017
$end
$version
  GHDL v0
$end
$timescale
  1 fs
$end
$var reg 3 ! botones[2:0] $end
$var reg 8 " leds[7:0] $end
$var reg 1 # botone $end
$scope module u0 $end
$var reg 3 $ entrada[2:0] $end
$var reg 8 % salida[7:0] $end
$var reg 1 & e $end
$var reg 1 ' a0 $end
$var reg 1 ( a1 $end
$var reg 1 ) a2 $end
$var reg 1 * a3 $end
$var reg 1 + a4 $end
$var reg 1 , a5 $end
$scope module c1 $end
$var reg 1 - x $end
$var reg 1 . f $end
$upscope $end
$scope module c2 $end
$var reg 1 / x $end
$var reg 1 0 f $end
$upscope $end
$scope module c3 $end
$var reg 1 1 x $end
$var reg 1 2 f $end
$upscope $end
$scope module c4 $end
$var reg 1 3 x $end
$var reg 1 4 y $end
$var reg 1 5 z $end
$var reg 1 6 f $end
$upscope $end
$scope module c5 $end
$var reg 1 7 x $end
$var reg 1 8 y $end
$var reg 1 9 z $end
$var reg 1 : f $end
$upscope $end
$scope module c6 $end
$var reg 1 ; x $end
$var reg 1 < y $end
$var reg 1 = z $end
$var reg 1 > f $end
$upscope $end
$scope module c7 $end
$var reg 1 ? x $end
$var reg 1 @ y $end
$var reg 1 A z $end
$var reg 1 B f $end
$upscope $end
$scope module c8 $end
$var reg 1 C x $end
$var reg 1 D y $end
$var reg 1 E z $end
$var reg 1 F f $end
$upscope $end
$scope module c9 $end
$var reg 1 G x $end
$var reg 1 H y $end
$var reg 1 I z $end
$var reg 1 J f $end
$upscope $end
$scope module c10 $end
$var reg 1 K x $end
$var reg 1 L y $end
$var reg 1 M z $end
$var reg 1 N f $end
$upscope $end
$scope module c11 $end
$var reg 1 O x $end
$var reg 1 P y $end
$var reg 1 Q z $end
$var reg 1 R f $end
$upscope $end
$upscope $end
$enddefinitions $end
#0
b000 !
b00000011 "
0#
b000 $
b00000011 %
0&
0'
0(
0)
1*
1+
1,
0-
1.
0/
10
01
12
13
14
15
16
17
18
19
1:
0;
1<
1=
0>
1?
0@
0A
0B
0C
1D
1E
0F
1G
0H
0I
0J
1K
0L
0M
0N
0O
0P
0Q
0R
#20000000
b100 !
b00010000 "
b100 $
b00010000 %
1)
0,
11
02
05
06
08
0:
0=
0?
1C
1F
1H
1M
1Q
#40000000
b010 !
b00000100 "
b010 $
b00000100 %
1(
0)
0+
1,
1/
00
01
12
04
15
07
18
1;
1=
1>
1?
1@
0C
0E
0F
0G
0H
1L
0M
1O
0Q
#60000000
b110 !
b01000000 "
b110 $
b01000000 %
1)
0,
11
02
05
08
0=
0>
0?
1C
1H
1M
1N
1Q
#80000000
b001 !
b00000000 "
b001 $
b00000000 %
1'
0(
0)
0*
1+
1,
1-
0.
0/
10
01
12
03
14
15
17
18
09
0;
0<
1=
1?
0@
1A
0C
0D
1E
1G
0H
1I
0K
0L
0M
0N
0O
1P
0Q
#100000000
b101 !
b00100000 "
b101 $
b00100000 %
1)
0,
11
02
05
08
0=
0?
1C
1H
1J
1M
1Q
#120000000
b011 !
b00001000 "
b011 $
b00001000 %
1(
0)
0+
1,
1/
00
01
12
04
15
07
18
1;
1=
1?
1@
1B
0C
0E
0G
0H
0J
1L
0M
1O
0Q
#140000000
b111 !
b10000000 "
b111 $
b10000000 %
1)
0,
11
02
05
08
0=
0?
0B
1C
1H
1M
1Q
1R
#160000000
b000 !
b00000011 "
1#
b000 $
b00000011 %
1&
0'
0(
0)
1*
1+
1,
0-
1.
0/
10
01
12
13
14
15
16
17
18
19
1:
0;
1<
1=
1?
0@
0A
0C
1D
1E
1G
0H
0I
1K
0L
0M
0O
0P
0Q
0R
#180000000
b100 !
b00010000 "
b100 $
b00010000 %
1)
0,
11
02
05
06
08
0:
0=
0?
1C
1F
1H
1M
1Q
#200000000
b010 !
b00000100 "
b010 $
b00000100 %
1(
0)
0+
1,
1/
00
01
12
04
15
07
18
1;
1=
1>
1?
1@
0C
0E
0F
0G
0H
1L
0M
1O
0Q
#220000000
b110 !
b01000000 "
b110 $
b01000000 %
1)
0,
11
02
05
08
0=
0>
0?
1C
1H
1M
1N
1Q
#240000000
b001 !
b00000000 "
b001 $
b00000000 %
1'
0(
0)
0*
1+
1,
1-
0.
0/
10
01
12
03
14
15
17
18
09
0;
0<
1=
1?
0@
1A
0C
0D
1E
1G
0H
1I
0K
0L
0M
0N
0O
1P
0Q
#260000000
b101 !
b00100000 "
b101 $
b00100000 %
1)
0,
11
02
05
08
0=
0?
1C
1H
1J
1M
1Q
#280000000
b011 !
b00001000 "
b011 $
b00001000 %
1(
0)
0+
1,
1/
00
01
12
04
15
07
18
1;
1=
1?
1@
1B
0C
0E
0G
0H
0J
1L
0M
1O
0Q
#300000000
b111 !
b10000000 "
b111 $
b10000000 %
1)
0,
11
02
05
08
0=
0?
0B
1C
1H
1M
1Q
1R
#320000000
b000 !
b00000011 "
0#
b000 $
b00000011 %
0&
0'
0(
0)
1*
1+
1,
0-
1.
0/
10
01
12
13
14
15
16
17
18
19
1:
0;
1<
1=
1?
0@
0A
0C
1D
1E
1G
0H
0I
1K
0L
0M
0O
0P
0Q
0R
#340000000
b100 !
b00010000 "
b100 $
b00010000 %
1)
0,
11
02
05
06
08
0:
0=
0?
1C
1F
1H
1M
1Q
#360000000
b010 !
b00000100 "
b010 $
b00000100 %
1(
0)
0+
1,
1/
00
01
12
04
15
07
18
1;
1=
1>
1?
1@
0C
0E
0F
0G
0H
1L
0M
1O
0Q
#380000000
b110 !
b01000000 "
b110 $
b01000000 %
1)
0,
11
02
05
08
0=
0>
0?
1C
1H
1M
1N
1Q
