secuencial2/01_ffjk/tb_sec2ffjk.vcd
$date
  Tue Jul 18 02:36:13 2017
$end
$version
  GHDL v0
$end
$timescale
  1 fs
$end
$var reg 1 ! botonw $end
$var reg 1 " botonclk $end
$var reg 1 # ledz $end
$scope module u0 $end
$var reg 1 $ w $end
$var reg 1 % clk $end
$var reg 1 & z $end
$var reg 10 ' a[9:0] $end
$scope module u0 $end
$var reg 1 ( j $end
$var reg 1 ) clk $end
$var reg 1 * k $end
$var reg 1 + qn $end
$var reg 1 , q $end
$var reg 1 - interna $end
$upscope $end
$scope module u1 $end
$var reg 1 . j $end
$var reg 1 / clk $end
$var reg 1 0 k $end
$var reg 1 1 qn $end
$var reg 1 2 q $end
$var reg 1 3 interna $end
$upscope $end
$scope module u2 $end
$var reg 1 4 x $end
$var reg 1 5 y $end
$var reg 1 6 f $end
$upscope $end
$scope module u3 $end
$var reg 1 7 x $end
$var reg 1 8 y $end
$var reg 1 9 f $end
$upscope $end
$scope module u4 $end
$var reg 1 : x $end
$var reg 1 ; y $end
$var reg 1 < f $end
$upscope $end
$scope module u5 $end
$var reg 1 = x $end
$var reg 1 > f $end
$upscope $end
$scope module u6 $end
$var reg 1 ? x $end
$var reg 1 @ y $end
$var reg 1 A f $end
$upscope $end
$scope module u7 $end
$var reg 1 B x $end
$var reg 1 C y $end
$var reg 1 D f $end
$upscope $end
$upscope $end
$enddefinitions $end
#0
0!
0"
0#
0$
0%
0&
b0000010100 '
0(
0)
1*
1+
0,
0-
0.
0/
10
11
02
03
04
05
06
17
08
09
0:
0;
0<
0=
1>
0?
0@
0A
0B
0C
0D
#10000000
1"
1%
1)
1/
#20000000
0"
0%
0)
0/
#25000000
1!
1$
b0000110000 '
0*
1.
14
18
19
1:
1=
0>
1?
#30000000
1"
1#
1%
1&
b0101110010 '
1(
1)
1/
01
12
13
15
16
1@
1A
1C
1D
#35000000
0!
0#
0$
0&
b0001010100 '
0(
1*
0.
04
06
08
09
0:
0=
1>
0?
0A
0C
0D
#40000000
0"
0%
0)
0/
#50000000
1"
1%
b0000010100 '
1)
1/
11
02
03
05
0@
#55000000
1!
1$
b0000110000 '
0*
1.
14
18
19
1:
1=
0>
1?
#60000000
0"
0%
0)
0/
#70000000
1"
1#
1%
1&
b0101110010 '
1(
1)
1/
01
12
13
15
16
1@
1A
1C
1D
#80000000
0"
0%
0)
0/
#90000000
1"
1%
b0010001000 '
0(
1)
0+
1,
1-
0.
1/
11
02
03
05
06
07
09
1;
1<
0@
0A
1B
0C
#95000000
0!
0#
0$
0&
b0000001100 '
1*
04
08
0:
0<
0=
1>
0?
0B
0D
#100000000
0"
0%
0)
0/
#110000000
1"
1%
b0000010100 '
1)
1+
0,
0-
1/
17
0;
#120000000
0"
0%
0)
0/
#130000000
1"
1%
1)
1/
#140000000
0"
0%
0)
0/
#145000000
1!
1$
b0000110000 '
0*
1.
14
18
19
1:
1=
0>
1?
#150000000
1"
1#
1%
1&
b0101110010 '
1(
1)
1/
01
12
13
15
16
1@
1A
1C
1D
#160000000
0"
0%
0)
0/
#170000000
1"
1%
b0010001000 '
0(
1)
0+
1,
1-
0.
1/
11
02
03
05
06
07
09
1;
1<
0@
0A
1B
0C
#180000000
0"
0%
0)
0/
#190000000
1"
1%
1)
1/
#195000000
0!
0#
0$
0&
b0000001100 '
1*
04
08
0:
0<
0=
1>
0?
0B
0D
#200000000
0"
0%
0)
0/
#210000000
1"
1%
b0000010100 '
1)
1+
0,
0-
1/
17
0;
#220000000
1!
0"
1$
0%
b0000110000 '
0)
0*
1.
0/
14
18
19
1:
1=
0>
1?
#230000000
0!
1"
0$
1%
b0001010100 '
1)
1*
0.
1/
01
12
13
04
15
08
09
0:
0=
1>
0?
1@
#240000000
0"
0%
0)
0/
#250000000
1!
1"
0#
1$
1%
0&
b0000110000 '
0(
1)
0*
1.
1/
11
02
03
14
05
06
18
19
1:
1=
0>
1?
0@
0A
0C
0D
#260000000
0"
0%
0)
0/
#270000000
1"
1#
1%
1&
b0101110010 '
1(
1)
1/
01
12
13
15
16
1@
1A
1C
1D
#280000000
0"
0%
0)
0/
#290000000
0!
1"
0#
0$
1%
0&
b0000001100 '
0(
1)
1*
0+
1,
1-
0.
1/
11
02
03
04
05
06
07
08
09
0:
1;
0=
1>
0?
0@
0A
0C
0D
#300000000
0"
0%
0)
0/
#310000000
1"
1%
b0000010100 '
1)
1+
0,
0-
1/
17
0;
#320000000
0"
0%
0)
0/
#330000000
1"
1%
1)
1/
#340000000
1!
0"
1$
0%
b0000110000 '
0)
0*
1.
0/
14
18
19
1:
1=
0>
1?
#350000000
1"
1#
1%
1&
b0101110010 '
1(
1)
1/
01
12
13
15
16
1@
1A
1C
1D
#360000000
0"
0%
0)
0/
#370000000
1"
1%
b0010001000 '
0(
1)
0+
1,
1-
0.
1/
11
02
03
05
06
07
09
1;
1<
0@
0A
1B
0C
#380000000
0"
0%
0)
0/
#390000000
0!
1"
0#
0$
1%
0&
b0000001100 '
1)
1*
1/
04
08
0:
0<
0=
1>
0?
0B
0D
