compuertas/compnot1/tb_compnot1.vcd
$date
  Sun Jan 29 19:41:56 2017
$end
$version
  GHDL v0
$end
$timescale
  1 fs
$end
$var reg 1 ! botonx $end
$var reg 1 " ledf $end
$scope module u0 $end
$var reg 1 # x $end
$var reg 1 $ f $end
$upscope $end
$enddefinitions $end
#0
0!
1"
0#
1$
#10000000
1!
0"
1#
0$
#20000000
0!
1"
0#
1$
#30000000
1!
0"
1#
0$
#40000000
0!
1"
0#
1$
#50000000
1!
0"
1#
0$
#60000000
0!
1"
0#
1$
#70000000
1!
0"
1#
0$
#80000000
0!
1"
0#
1$
#90000000
1!
0"
1#
0$
