sumresban/sumres/tb_sumres.vcd
$date
  Thu Jul  6 09:18:10 2017
$end
$version
  GHDL v0
$end
$timescale
  1 fs
$end
$var reg 4 ! botonx[3:0] $end
$var reg 4 " botony[3:0] $end
$var reg 1 # botonsub $end
$var reg 4 $ leds[3:0] $end
$var reg 1 % ledcout $end
$var reg 1 & ledv $end
$var reg 1 ' ledz $end
$var reg 1 ( ledn $end
$scope module u0 $end
$var reg 4 ) x[3:0] $end
$var reg 4 * y[3:0] $end
$var reg 1 + sub $end
$var reg 1 , v $end
$var reg 1 - z $end
$var reg 1 . cut $end
$var reg 1 / n $end
$var reg 4 0 s[3:0] $end
$var reg 4 1 c0[3:0] $end
$var reg 4 2 c2[3:0] $end
$var reg 4 3 c3[3:0] $end
$var reg 4 4 c4[3:0] $end
$var reg 4 5 a[3:0] $end
$var reg 1 6 c1 $end
$var reg 1 7 c10 $end
$var reg 1 8 c5 $end
$var reg 1 9 c6 $end
$var reg 1 : c7 $end
$var reg 1 ; c8 $end
$scope module u0 $end
$var reg 4 < y[3:0] $end
$var reg 1 = sub $end
$var reg 4 > yc[3:0] $end
$upscope $end
$scope module u1 $end
$var reg 4 ? x[3:0] $end
$var reg 4 @ y[3:0] $end
$var reg 1 A cin $end
$var reg 1 B n3 $end
$var reg 1 C cout $end
$var reg 4 D r[3:0] $end
$var reg 1 E d0 $end
$var reg 1 F d1 $end
$var reg 1 G d2 $end
$var reg 1 H d3 $end
$var reg 1 I d4 $end
$scope module u0 $end
$var reg 1 J x $end
$var reg 1 K y $end
$var reg 1 L cin $end
$var reg 1 M cout $end
$var reg 1 N r $end
$upscope $end
$scope module u1 $end
$var reg 1 O x $end
$var reg 1 P y $end
$var reg 1 Q cin $end
$var reg 1 R cout $end
$var reg 1 S r $end
$upscope $end
$scope module u2 $end
$var reg 1 T x $end
$var reg 1 U y $end
$var reg 1 V cin $end
$var reg 1 W cout $end
$var reg 1 X r $end
$upscope $end
$scope module u3 $end
$var reg 1 Y x $end
$var reg 1 Z y $end
$var reg 1 [ cin $end
$var reg 1 \ cout $end
$var reg 1 ] r $end
$upscope $end
$upscope $end
$scope module u2 $end
$var reg 1 ^ x $end
$var reg 1 _ y $end
$var reg 1 ` w $end
$var reg 1 a z $end
$var reg 1 b f $end
$upscope $end
$scope module u3 $end
$var reg 1 c x $end
$var reg 1 d y $end
$var reg 1 e f $end
$upscope $end
$upscope $end
$enddefinitions $end
#0
b0000 !
b0000 "
0#
b0000 $
0%
0&
1'
0(
b0000 )
b0000 *
0+
0,
1-
0.
0/
b0000 0
b0000 1
b0000 2
b0000 3
b0000 4
b0000 5
06
07
08
09
0:
0;
b0000 <
0=
b0000 >
b0000 ?
b0000 @
0A
0B
0C
b0000 D
0E
0F
0G
0H
0I
0J
0K
0L
0M
0N
0O
0P
0Q
0R
0S
0T
0U
0V
0W
0X
0Y
0Z
0[
0\
0]
0^
0_
0`
0a
1b
0c
0d
0e
#20000000
#40000000
b0001 "
b0001 $
0'
b0001 *
0-
b0001 0
b0001 2
b0001 5
b0001 <
b0001 >
b0001 @
b0001 D
1K
1N
1a
0b
#60000000
b0010 "
b0010 $
b0010 *
b0010 0
b0010 2
b0010 5
b0010 <
b0010 >
b0010 @
b0010 D
0K
0N
1P
1S
1`
0a
#80000000
b0001 !
b0011 "
b0100 $
0'
b0001 )
b0011 *
0-
b0100 0
b0011 2
b0100 5
b0011 <
b0011 >
b0001 ?
b0011 @
b0100 D
1F
1G
1J
1K
1M
0N
1Q
1R
0S
1V
1X
1_
0`
0a
0b
#100000000
b0100 "
b0101 $
0&
0(
b0100 *
0,
0/
b0101 0
b0100 2
b0101 5
07
b0100 <
b0100 >
b0100 @
0B
b0101 D
0F
0G
0H
0K
0M
1N
0P
0Q
0R
0S
1U
0V
0W
1X
0[
0]
0^
1_
0`
1a
0d
0e
#120000000
b1000 !
b1000 "
b0000 $
1%
1&
1'
0(
b1000 )
b1000 *
1,
1-
1.
0/
b0000 0
b1000 2
b0000 5
18
b1000 <
b1000 >
b1000 ?
b1000 @
1C
b0000 D
0J
0N
0U
0X
1Y
1Z
1\
0]
0^
0_
0a
1b
1c
1e
#140000000
b1001 "
b0001 $
0'
b1001 *
0-
b0001 0
b1001 2
b0001 5
b1001 <
b1001 >
b1001 @
b0001 D
1K
1N
1a
0b
#160000000
b1001 !
b1111 "
1#
b1000 $
0&
0'
1(
b1001 )
b1111 *
1+
0,
0-
1/
b1000 0
b1111 2
b1000 5
17
b1111 <
b1111 >
b1001 ?
b1111 @
1B
b1000 D
1F
1G
1H
1J
1M
0N
1P
1Q
1R
1U
1V
1W
0X
1[
1]
1^
0_
0a
0b
1d
0e
#180000000
b0000 "
b1001 $
0%
1(
b0000 *
0.
1/
b1001 0
b0000 2
b1001 5
07
08
b0000 <
b0000 >
b0000 @
0B
0C
b1001 D
0F
0G
0H
0K
0M
1N
0P
0Q
0R
0S
0U
0V
0W
0X
0Z
0[
0\
1]
1^
0_
0`
1a
0c
0d
#200000000
b0000 !
b0001 "
b0001 $
0'
0(
b0000 )
b0001 *
0-
0/
b0001 0
b0001 2
b0001 5
b0001 <
b0001 >
b0000 ?
b0001 @
b0001 D
0J
1K
1N
0Y
0]
0^
1a
0b
#220000000
b0010 "
b0010 $
b0010 *
b0010 0
b0010 2
b0010 5
b0010 <
b0010 >
b0010 @
b0010 D
0K
0N
1P
1S
1`
0a
#240000000
b0001 !
b0011 "
b0100 $
0'
b0001 )
b0011 *
0-
b0100 0
b0011 2
b0100 5
b0011 <
b0011 >
b0001 ?
b0011 @
b0100 D
1F
1G
1J
1K
1M
0N
1Q
1R
0S
1V
1X
1_
0`
0a
0b
#260000000
b0100 "
b0101 $
0&
0(
b0100 *
0,
0/
b0101 0
b0100 2
b0101 5
07
b0100 <
b0100 >
b0100 @
0B
b0101 D
0F
0G
0H
0K
0M
1N
0P
0Q
0R
0S
1U
0V
0W
1X
0[
0]
0^
1_
0`
1a
0d
0e
#280000000
b1000 !
b1000 "
b0000 $
1%
1&
1'
0(
b1000 )
b1000 *
1,
1-
1.
0/
b0000 0
b1000 2
b0000 5
18
b1000 <
b1000 >
b1000 ?
b1000 @
1C
b0000 D
0J
0N
0U
0X
1Y
1Z
1\
0]
0^
0_
0a
1b
1c
1e
#300000000
b1001 "
b0001 $
0'
b1001 *
0-
b0001 0
b1001 2
b0001 5
b1001 <
b1001 >
b1001 @
b0001 D
1K
1N
1a
0b
#320000000
b1001 !
b1111 "
0#
b1000 $
0&
0'
1(
b1001 )
b1111 *
0+
0,
0-
1/
b1000 0
b1111 2
b1000 5
17
b1111 <
b1111 >
b1001 ?
b1111 @
1B
b1000 D
1F
1G
1H
1J
1M
0N
1P
1Q
1R
1U
1V
1W
0X
1[
1]
1^
0_
0a
0b
1d
0e
#340000000
b0000 "
b1001 $
0%
1(
b0000 *
0.
1/
b1001 0
b0000 2
b1001 5
07
08
b0000 <
b0000 >
b0000 @
0B
0C
b1001 D
0F
0G
0H
0K
0M
1N
0P
0Q
0R
0S
0U
0V
0W
0X
0Z
0[
0\
1]
1^
0_
0`
1a
0c
0d
#360000000
b0000 !
b0001 "
b0001 $
0'
0(
b0000 )
b0001 *
0-
0/
b0001 0
b0001 2
b0001 5
b0001 <
b0001 >
b0000 ?
b0001 @
b0001 D
0J
1K
1N
0Y
0]
0^
1a
0b
#380000000
b0010 "
b0010 $
b0010 *
b0010 0
b0010 2
b0010 5
b0010 <
b0010 >
b0010 @
b0010 D
0K
0N
1P
1S
1`
0a
#400000000
b0001 !
b0011 "
b0100 $
0'
b0001 )
b0011 *
0-
b0100 0
b0011 2
b0100 5
b0011 <
b0011 >
b0001 ?
b0011 @
b0100 D
1F
1G
1J
1K
1M
0N
1Q
1R
0S
1V
1X
1_
0`
0a
0b
#420000000
b0100 "
b0101 $
0&
0(
b0100 *
0,
0/
b0101 0
b0100 2
b0101 5
07
b0100 <
b0100 >
b0100 @
0B
b0101 D
0F
0G
0H
0K
0M
1N
0P
0Q
0R
0S
1U
0V
0W
1X
0[
0]
0^
1_
0`
1a
0d
0e
#440000000
b1000 !
b1000 "
b0000 $
1%
1&
1'
0(
b1000 )
b1000 *
1,
1-
1.
0/
b0000 0
b1000 2
b0000 5
18
b1000 <
b1000 >
b1000 ?
b1000 @
1C
b0000 D
0J
0N
0U
0X
1Y
1Z
1\
0]
0^
0_
0a
1b
1c
1e
#460000000
b1001 "
b0001 $
0'
b1001 *
0-
b0001 0
b1001 2
b0001 5
b1001 <
b1001 >
b1001 @
b0001 D
1K
1N
1a
0b
#480000000
b1001 !
b1111 "
1#
b1000 $
0&
0'
1(
b1001 )
b1111 *
1+
0,
0-
1/
b1000 0
b1111 2
b1000 5
17
b1111 <
b1111 >
b1001 ?
b1111 @
1B
b1000 D
1F
1G
1H
1J
1M
0N
1P
1Q
1R
1U
1V
1W
0X
1[
1]
1^
0_
0a
0b
1d
0e
#500000000
b0000 "
b1001 $
0%
1(
b0000 *
0.
1/
b1001 0
b0000 2
b1001 5
07
08
b0000 <
b0000 >
b0000 @
0B
0C
b1001 D
0F
0G
0H
0K
0M
1N
0P
0Q
0R
0S
0U
0V
0W
0X
0Z
0[
0\
1]
1^
0_
0`
1a
0c
0d
#520000000
b0000 !
b0001 "
b0001 $
0'
0(
b0000 )
b0001 *
0-
0/
b0001 0
b0001 2
b0001 5
b0001 <
b0001 >
b0000 ?
b0001 @
b0001 D
0J
1K
1N
0Y
0]
0^
1a
0b
#540000000
b0010 "
b0010 $
b0010 *
b0010 0
b0010 2
b0010 5
b0010 <
b0010 >
b0010 @
b0010 D
0K
0N
1P
1S
1`
0a
#560000000
b0001 !
b0011 "
b0100 $
0'
b0001 )
b0011 *
0-
b0100 0
b0011 2
b0100 5
b0011 <
b0011 >
b0001 ?
b0011 @
b0100 D
1F
1G
1J
1K
1M
0N
1Q
1R
0S
1V
1X
1_
0`
0a
0b
#580000000
b0100 "
b0101 $
0&
0(
b0100 *
0,
0/
b0101 0
b0100 2
b0101 5
07
b0100 <
b0100 >
b0100 @
0B
b0101 D
0F
0G
0H
0K
0M
1N
0P
0Q
0R
0S
1U
0V
0W
1X
0[
0]
0^
1_
0`
1a
0d
0e
#600000000
b1000 !
b1000 "
b0000 $
1%
1&
1'
0(
b1000 )
b1000 *
1,
1-
1.
0/
b0000 0
b1000 2
b0000 5
18
b1000 <
b1000 >
b1000 ?
b1000 @
1C
b0000 D
0J
0N
0U
0X
1Y
1Z
1\
0]
0^
0_
0a
1b
1c
1e
#620000000
b1001 "
b0001 $
0'
b1001 *
0-
b0001 0
b1001 2
b0001 5
b1001 <
b1001 >
b1001 @
b0001 D
1K
1N
1a
0b
#640000000
b1001 !
b1111 "
0#
b1000 $
0&
0'
1(
b1001 )
b1111 *
0+
0,
0-
1/
b1000 0
b1111 2
b1000 5
17
b1111 <
b1111 >
b1001 ?
b1111 @
1B
b1000 D
1F
1G
1H
1J
1M
0N
1P
1Q
1R
1U
1V
1W
0X
1[
1]
1^
0_
0a
0b
1d
0e
#660000000
b0000 "
b1001 $
0%
1(
b0000 *
0.
1/
b1001 0
b0000 2
b1001 5
07
08
b0000 <
b0000 >
b0000 @
0B
0C
b1001 D
0F
0G
0H
0K
0M
1N
0P
0Q
0R
0S
0U
0V
0W
0X
0Z
0[
0\
1]
1^
0_
0`
1a
0c
0d
#680000000
b0000 !
b0001 "
b0001 $
0'
0(
b0000 )
b0001 *
0-
0/
b0001 0
b0001 2
b0001 5
b0001 <
b0001 >
b0000 ?
b0001 @
b0001 D
0J
1K
1N
0Y
0]
0^
1a
0b
#700000000
b0010 "
b0010 $
b0010 *
b0010 0
b0010 2
b0010 5
b0010 <
b0010 >
b0010 @
b0010 D
0K
0N
1P
1S
1`
0a
#720000000
b0001 !
b0011 "
b0100 $
0'
b0001 )
b0011 *
0-
b0100 0
b0011 2
b0100 5
b0011 <
b0011 >
b0001 ?
b0011 @
b0100 D
1F
1G
1J
1K
1M
0N
1Q
1R
0S
1V
1X
1_
0`
0a
0b
#740000000
b0100 "
b0101 $
0&
0(
b0100 *
0,
0/
b0101 0
b0100 2
b0101 5
07
b0100 <
b0100 >
b0100 @
0B
b0101 D
0F
0G
0H
0K
0M
1N
0P
0Q
0R
0S
1U
0V
0W
1X
0[
0]
0^
1_
0`
1a
0d
0e
#760000000
b1000 !
b1000 "
b0000 $
1%
1&
1'
0(
b1000 )
b1000 *
1,
1-
1.
0/
b0000 0
b1000 2
b0000 5
18
b1000 <
b1000 >
b1000 ?
b1000 @
1C
b0000 D
0J
0N
0U
0X
1Y
1Z
1\
0]
0^
0_
0a
1b
1c
1e
#780000000
b1001 "
b0001 $
0'
b1001 *
0-
b0001 0
b1001 2
b0001 5
b1001 <
b1001 >
b1001 @
b0001 D
1K
1N
1a
0b
#800000000
b1001 !
b1111 "
1#
b1000 $
0&
0'
1(
b1001 )
b1111 *
1+
0,
0-
1/
b1000 0
b1111 2
b1000 5
17
b1111 <
b1111 >
b1001 ?
b1111 @
1B
b1000 D
1F
1G
1H
1J
1M
0N
1P
1Q
1R
1U
1V
1W
0X
1[
1]
1^
0_
0a
0b
1d
0e
#820000000
b0000 "
b1001 $
0%
1(
b0000 *
0.
1/
b1001 0
b0000 2
b1001 5
07
08
b0000 <
b0000 >
b0000 @
0B
0C
b1001 D
0F
0G
0H
0K
0M
1N
0P
0Q
0R
0S
0U
0V
0W
0X
0Z
0[
0\
1]
1^
0_
0`
1a
0c
0d
#840000000
b0000 !
b0001 "
b0001 $
0'
0(
b0000 )
b0001 *
0-
0/
b0001 0
b0001 2
b0001 5
b0001 <
b0001 >
b0000 ?
b0001 @
b0001 D
0J
1K
1N
0Y
0]
0^
1a
0b
#860000000
b0010 "
b0010 $
b0010 *
b0010 0
b0010 2
b0010 5
b0010 <
b0010 >
b0010 @
b0010 D
0K
0N
1P
1S
1`
0a
#880000000
b0001 !
b0011 "
b0100 $
0'
b0001 )
b0011 *
0-
b0100 0
b0011 2
b0100 5
b0011 <
b0011 >
b0001 ?
b0011 @
b0100 D
1F
1G
1J
1K
1M
0N
1Q
1R
0S
1V
1X
1_
0`
0a
0b
#900000000
b0100 "
b0101 $
0&
0(
b0100 *
0,
0/
b0101 0
b0100 2
b0101 5
07
b0100 <
b0100 >
b0100 @
0B
b0101 D
0F
0G
0H
0K
0M
1N
0P
0Q
0R
0S
1U
0V
0W
1X
0[
0]
0^
1_
0`
1a
0d
0e
#920000000
b1000 !
b1000 "
b0000 $
1%
1&
1'
0(
b1000 )
b1000 *
1,
1-
1.
0/
b0000 0
b1000 2
b0000 5
18
b1000 <
b1000 >
b1000 ?
b1000 @
1C
b0000 D
0J
0N
0U
0X
1Y
1Z
1\
0]
0^
0_
0a
1b
1c
1e
#940000000
b1001 "
b0001 $
0'
b1001 *
0-
b0001 0
b1001 2
b0001 5
b1001 <
b1001 >
b1001 @
b0001 D
1K
1N
1a
0b
#960000000
b1001 !
b1111 "
0#
b1000 $
0&
0'
1(
b1001 )
b1111 *
0+
0,
0-
1/
b1000 0
b1111 2
b1000 5
17
b1111 <
b1111 >
b1001 ?
b1111 @
1B
b1000 D
1F
1G
1H
1J
1M
0N
1P
1Q
1R
1U
1V
1W
0X
1[
1]
1^
0_
0a
0b
1d
0e
#980000000
b0000 "
b1001 $
0%
1(
b0000 *
0.
1/
b1001 0
b0000 2
b1001 5
07
08
b0000 <
b0000 >
b0000 @
0B
0C
b1001 D
0F
0G
0H
0K
0M
1N
0P
0Q
0R
0S
0U
0V
0W
0X
0Z
0[
0\
1]
1^
0_
0`
1a
0c
0d
