contbcd/funcional/tb_contbcd.vcd
$date
  Tue Jul 18 02:38:07 2017
$end
$version
  GHDL v0
$end
$timescale
  1 fs
$end
$var reg 1 ! clk $end
$var reg 7 " a[6:0] $end
$scope module u0 $end
$var reg 1 # clk $end
$var reg 7 $ a[6:0] $end
$var reg 4 % x[3:0] $end
$var reg 4 & ep[3:0] $end
$var reg 4 ' es[3:0] $end
$upscope $end
$enddefinitions $end
#0
0!
b0000001 "
0#
b0000001 $
b0000 %
b0000 &
b0001 '
#10000000
1!
b1001111 "
1#
b1001111 $
b0001 %
b0001 &
b0010 '
#20000000
0!
0#
#30000000
1!
b0010010 "
1#
b0010010 $
b0010 %
b0010 &
b0011 '
#40000000
0!
0#
#50000000
1!
b0000110 "
1#
b0000110 $
b0011 %
b0011 &
b0100 '
#60000000
0!
0#
#70000000
1!
b1001100 "
1#
b1001100 $
b0100 %
b0100 &
b0101 '
#80000000
0!
0#
#90000000
1!
b0100100 "
1#
b0100100 $
b0101 %
b0101 &
b0110 '
#100000000
0!
0#
#110000000
1!
b0100000 "
1#
b0100000 $
b0110 %
b0110 &
b0111 '
#120000000
0!
0#
#130000000
1!
b0001111 "
1#
b0001111 $
b0111 %
b0111 &
b1000 '
#140000000
0!
0#
#150000000
1!
b0000000 "
1#
b0000000 $
b1000 %
b1000 &
b1001 '
#160000000
0!
0#
#170000000
1!
b0000100 "
1#
b0000100 $
b1001 %
b1001 &
b0000 '
#180000000
0!
0#
#190000000
1!
b0000001 "
1#
b0000001 $
b0000 %
b0000 &
b0001 '
#200000000
0!
0#
#210000000
1!
b1001111 "
1#
b1001111 $
b0001 %
b0001 &
b0010 '
#220000000
0!
0#
#230000000
1!
b0010010 "
1#
b0010010 $
b0010 %
b0010 &
b0011 '
#240000000
0!
0#
#250000000
1!
b0000110 "
1#
b0000110 $
b0011 %
b0011 &
b0100 '
#260000000
0!
0#
#270000000
1!
b1001100 "
1#
b1001100 $
b0100 %
b0100 &
b0101 '
#280000000
0!
0#
#290000000
1!
b0100100 "
1#
b0100100 $
b0101 %
b0101 &
b0110 '
#300000000
0!
0#
#310000000
1!
b0100000 "
1#
b0100000 $
b0110 %
b0110 &
b0111 '
#320000000
0!
0#
#330000000
1!
b0001111 "
1#
b0001111 $
b0111 %
b0111 &
b1000 '
#340000000
0!
0#
#350000000
1!
b0000000 "
1#
b0000000 $
b1000 %
b1000 &
b1001 '
#360000000
0!
0#
#370000000
1!
b0000100 "
1#
b0000100 $
b1001 %
b1001 &
b0000 '
#380000000
0!
0#
#390000000
1!
b0000001 "
1#
b0000001 $
b0000 %
b0000 &
b0001 '
