compuertas/secuencial2/01_ffjk/tb_sec2ffjk.vcd
$date
  Fri Mar 24 14:45:30 2017
$end
$version
  GHDL v0
$end
$timescale
  1 fs
$end
$var reg 1 ! botonw $end
$var reg 1 " botonclk $end
$var reg 1 # ledz $end
$scope module u0 $end
$var reg 1 $ w $end
$var reg 1 % clk $end
$var reg 1 & z $end
$var reg 1 ' a1 $end
$var reg 1 ( a2 $end
$var reg 1 ) a3 $end
$var reg 1 * a4 $end
$var reg 1 + a5 $end
$var reg 1 , a6 $end
$var reg 1 - a7 $end
$var reg 1 . a8 $end
$var reg 1 / a9 $end
$scope module u0 $end
$var reg 1 0 j $end
$var reg 1 1 clk $end
$var reg 1 2 k $end
$var reg 1 3 qn $end
$var reg 1 4 q $end
$var reg 1 5 interna $end
$upscope $end
$scope module u1 $end
$var reg 1 6 j $end
$var reg 1 7 clk $end
$var reg 1 8 k $end
$var reg 1 9 qn $end
$var reg 1 : q $end
$var reg 1 ; interna $end
$upscope $end
$scope module u2 $end
$var reg 1 < x $end
$var reg 1 = y $end
$var reg 1 > f $end
$upscope $end
$scope module u3 $end
$var reg 1 ? x $end
$var reg 1 @ y $end
$var reg 1 A f $end
$upscope $end
$scope module u4 $end
$var reg 1 B x $end
$var reg 1 C y $end
$var reg 1 D f $end
$upscope $end
$scope module u5 $end
$var reg 1 E x $end
$var reg 1 F f $end
$upscope $end
$scope module u6 $end
$var reg 1 G x $end
$var reg 1 H y $end
$var reg 1 I f $end
$upscope $end
$upscope $end
$enddefinitions $end
#0
0!
0"
0#
0$
0%
0&
0'
1(
0)
0*
1+
0,
0-
0.
0/
00
01
12
13
04
05
06
07
18
19
0:
0;
0<
0=
0>
1?
0@
0A
0B
0C
0D
0E
1F
0G
0H
0I
#10000000
1"
1%
11
17
#20000000
0"
0%
01
07
#25000000
1!
1$
0(
1,
02
16
1=
1@
1A
1C
1E
0F
#30000000
1"
1#
1%
1&
1'
1-
1/
10
11
17
09
1:
1;
1<
1>
1B
1D
1H
1I
#35000000
0!
0#
0$
0&
0'
1(
0,
00
12
06
0=
0>
0@
0A
0C
0D
0E
1F
#40000000
0"
0%
01
07
#50000000
1"
1%
0-
0/
11
17
19
0:
0;
0<
0B
0H
0I
#55000000
1!
1$
0(
1,
02
16
1=
1@
1A
1C
1E
0F
#60000000
0"
0%
01
07
#70000000
1"
1#
1%
1&
1'
1-
1/
10
11
17
09
1:
1;
1<
1>
1B
1D
1H
1I
#80000000
0"
0%
01
07
#90000000
1"
1%
0'
1*
0+
0,
0-
00
11
03
14
15
06
17
19
0:
0;
0<
0>
0?
0A
1G
0H
#95000000
0!
0#
0$
0&
1(
12
0=
0@
0C
0D
0E
1F
#100000000
0"
0%
01
07
#110000000
1"
1%
0*
1+
0/
11
13
04
05
17
1?
0B
0G
0I
#120000000
0"
0%
01
07
#130000000
1"
1%
11
17
#140000000
0"
0%
01
07
#145000000
1!
1$
0(
1,
02
16
1=
1@
1A
1C
1E
0F
#150000000
1"
1#
1%
1&
1'
1-
1/
10
11
17
09
1:
1;
1<
1>
1B
1D
1H
1I
#160000000
0"
0%
01
07
#170000000
1"
1%
0'
1*
0+
0,
0-
00
11
03
14
15
06
17
19
0:
0;
0<
0>
0?
0A
1G
0H
#180000000
0"
0%
01
07
#190000000
1"
1%
11
17
#195000000
0!
0#
0$
0&
1(
12
0=
0@
0C
0D
0E
1F
#200000000
0"
0%
01
07
#210000000
1"
1%
0*
1+
0/
11
13
04
05
17
1?
0B
0G
0I
#220000000
1!
0"
1$
0%
0(
1,
01
02
16
07
1=
1@
1A
1C
1E
0F
#230000000
0!
1"
0$
1%
1(
0,
1-
1/
11
12
06
17
09
1:
1;
1<
0=
0@
0A
1B
0C
0E
1F
1H
1I
#240000000
0"
0%
01
07
#250000000
1!
1"
0#
1$
1%
0&
0'
0(
1,
0-
0/
00
11
02
16
17
19
0:
0;
0<
1=
0>
1@
1A
0B
1C
0D
1E
0F
0H
0I
#260000000
0"
0%
01
07
#270000000
1"
1#
1%
1&
1'
1-
1/
10
11
17
09
1:
1;
1<
1>
1B
1D
1H
1I
#280000000
0"
0%
01
07
#290000000
0!
1"
0#
0$
1%
0&
0'
1(
1*
0+
0,
0-
00
11
12
03
14
15
06
17
19
0:
0;
0<
0=
0>
0?
0@
0A
0C
0D
0E
1F
1G
0H
#300000000
0"
0%
01
07
#310000000
1"
1%
0*
1+
0/
11
13
04
05
17
1?
0B
0G
0I
#320000000
0"
0%
01
07
#330000000
1"
1%
11
17
#340000000
1!
0"
1$
0%
0(
1,
01
02
16
07
1=
1@
1A
1C
1E
0F
#350000000
1"
1#
1%
1&
1'
1-
1/
10
11
17
09
1:
1;
1<
1>
1B
1D
1H
1I
#360000000
0"
0%
01
07
#370000000
1"
1%
0'
1*
0+
0,
0-
00
11
03
14
15
06
17
19
0:
0;
0<
0>
0?
0A
1G
0H
#380000000
0"
0%
01
07
#390000000
0!
1"
0#
0$
1%
0&
1(
11
12
17
0=
0@
0C
0D
0E
1F
