compuertas/dl_mulmat4_Edgar_Humberto_Perez1/tb_mulmat4.vcd
$date
  Thu Jul  6 10:29:10 2017
$end
$version
  GHDL v0
$end
$timescale
  1 fs
$end
$var reg 4 ! botonm[3:0] $end
$var reg 4 " botonq[3:0] $end
$var reg 7 # ledr[6:0] $end
$scope module u0 $end
$var reg 4 $ m[3:0] $end
$var reg 4 % q[3:0] $end
$var reg 7 & r[6:0] $end
$var reg 56 ' a[55:0] $end
$scope module u0 $end
$var reg 1 ( mi $end
$var reg 1 ) sin $end
$var reg 1 * qi $end
$var reg 1 + cin $end
$var reg 1 , cout $end
$var reg 1 - qs $end
$var reg 1 . mio $end
$var reg 1 / sout $end
$var reg 1 0 a1 $end
$var reg 1 1 a2 $end
$var reg 1 2 a3 $end
$var reg 1 3 a4 $end
$var reg 1 4 a5 $end
$var reg 1 5 a6 $end
$var reg 1 6 a7 $end
$scope module u0 $end
$upscope $end
$scope module u1 $end
$upscope $end
$upscope $end
$scope module u1 $end
$var reg 1 7 mi $end
$var reg 1 8 sin $end
$var reg 1 9 qi $end
$var reg 1 : cin $end
$var reg 1 ; cout $end
$var reg 1 < qs $end
$var reg 1 = mio $end
$var reg 1 > sout $end
$var reg 1 ? a1 $end
$var reg 1 @ a2 $end
$var reg 1 A a3 $end
$var reg 1 B a4 $end
$var reg 1 C a5 $end
$var reg 1 D a6 $end
$var reg 1 E a7 $end
$scope module u0 $end
$upscope $end
$scope module u1 $end
$upscope $end
$upscope $end
$scope module u2 $end
$var reg 1 F mi $end
$var reg 1 G sin $end
$var reg 1 H qi $end
$var reg 1 I cin $end
$var reg 1 J cout $end
$var reg 1 K qs $end
$var reg 1 L mio $end
$var reg 1 M sout $end
$var reg 1 N a1 $end
$var reg 1 O a2 $end
$var reg 1 P a3 $end
$var reg 1 Q a4 $end
$var reg 1 R a5 $end
$var reg 1 S a6 $end
$var reg 1 T a7 $end
$scope module u0 $end
$upscope $end
$scope module u1 $end
$upscope $end
$upscope $end
$scope module u3 $end
$var reg 1 U mi $end
$var reg 1 V sin $end
$var reg 1 W qi $end
$var reg 1 X cin $end
$var reg 1 Y cout $end
$var reg 1 Z qs $end
$var reg 1 [ mio $end
$var reg 1 \ sout $end
$var reg 1 ] a1 $end
$var reg 1 ^ a2 $end
$var reg 1 _ a3 $end
$var reg 1 ` a4 $end
$var reg 1 a a5 $end
$var reg 1 b a6 $end
$var reg 1 c a7 $end
$scope module u0 $end
$upscope $end
$scope module u1 $end
$upscope $end
$upscope $end
$scope module u4 $end
$var reg 1 d mi $end
$var reg 1 e sin $end
$var reg 1 f qi $end
$var reg 1 g cin $end
$var reg 1 h cout $end
$var reg 1 i qs $end
$var reg 1 j mio $end
$var reg 1 k sout $end
$var reg 1 l a1 $end
$var reg 1 m a2 $end
$var reg 1 n a3 $end
$var reg 1 o a4 $end
$var reg 1 p a5 $end
$var reg 1 q a6 $end
$var reg 1 r a7 $end
$scope module u0 $end
$upscope $end
$scope module u1 $end
$upscope $end
$upscope $end
$scope module u5 $end
$var reg 1 s mi $end
$var reg 1 t sin $end
$var reg 1 u qi $end
$var reg 1 v cin $end
$var reg 1 w cout $end
$var reg 1 x qs $end
$var reg 1 y mio $end
$var reg 1 z sout $end
$var reg 1 { a1 $end
$var reg 1 | a2 $end
$var reg 1 } a3 $end
$var reg 1 !" a4 $end
$var reg 1 "" a5 $end
$var reg 1 #" a6 $end
$var reg 1 $" a7 $end
$scope module u0 $end
$upscope $end
$scope module u1 $end
$upscope $end
$upscope $end
$scope module u6 $end
$var reg 1 %" mi $end
$var reg 1 &" sin $end
$var reg 1 '" qi $end
$var reg 1 (" cin $end
$var reg 1 )" cout $end
$var reg 1 *" qs $end
$var reg 1 +" mio $end
$var reg 1 ," sout $end
$var reg 1 -" a1 $end
$var reg 1 ." a2 $end
$var reg 1 /" a3 $end
$var reg 1 0" a4 $end
$var reg 1 1" a5 $end
$var reg 1 2" a6 $end
$var reg 1 3" a7 $end
$scope module u0 $end
$upscope $end
$scope module u1 $end
$upscope $end
$upscope $end
$scope module u7 $end
$var reg 1 4" mi $end
$var reg 1 5" sin $end
$var reg 1 6" qi $end
$var reg 1 7" cin $end
$var reg 1 8" cout $end
$var reg 1 9" qs $end
$var reg 1 :" mio $end
$var reg 1 ;" sout $end
$var reg 1 <" a1 $end
$var reg 1 =" a2 $end
$var reg 1 >" a3 $end
$var reg 1 ?" a4 $end
$var reg 1 @" a5 $end
$var reg 1 A" a6 $end
$var reg 1 B" a7 $end
$scope module u0 $end
$upscope $end
$scope module u1 $end
$upscope $end
$upscope $end
$scope module u8 $end
$var reg 1 C" mi $end
$var reg 1 D" sin $end
$var reg 1 E" qi $end
$var reg 1 F" cin $end
$var reg 1 G" cout $end
$var reg 1 H" qs $end
$var reg 1 I" mio $end
$var reg 1 J" sout $end
$var reg 1 K" a1 $end
$var reg 1 L" a2 $end
$var reg 1 M" a3 $end
$var reg 1 N" a4 $end
$var reg 1 O" a5 $end
$var reg 1 P" a6 $end
$var reg 1 Q" a7 $end
$scope module u0 $end
$upscope $end
$scope module u1 $end
$upscope $end
$upscope $end
$scope module u9 $end
$var reg 1 R" mi $end
$var reg 1 S" sin $end
$var reg 1 T" qi $end
$var reg 1 U" cin $end
$var reg 1 V" cout $end
$var reg 1 W" qs $end
$var reg 1 X" mio $end
$var reg 1 Y" sout $end
$var reg 1 Z" a1 $end
$var reg 1 [" a2 $end
$var reg 1 \" a3 $end
$var reg 1 ]" a4 $end
$var reg 1 ^" a5 $end
$var reg 1 _" a6 $end
$var reg 1 `" a7 $end
$scope module u0 $end
$upscope $end
$scope module u1 $end
$upscope $end
$upscope $end
$scope module u10 $end
$var reg 1 a" mi $end
$var reg 1 b" sin $end
$var reg 1 c" qi $end
$var reg 1 d" cin $end
$var reg 1 e" cout $end
$var reg 1 f" qs $end
$var reg 1 g" mio $end
$var reg 1 h" sout $end
$var reg 1 i" a1 $end
$var reg 1 j" a2 $end
$var reg 1 k" a3 $end
$var reg 1 l" a4 $end
$var reg 1 m" a5 $end
$var reg 1 n" a6 $end
$var reg 1 o" a7 $end
$scope module u0 $end
$upscope $end
$scope module u1 $end
$upscope $end
$upscope $end
$scope module u11 $end
$var reg 1 p" mi $end
$var reg 1 q" sin $end
$var reg 1 r" qi $end
$var reg 1 s" cin $end
$var reg 1 t" cout $end
$var reg 1 u" qs $end
$var reg 1 v" mio $end
$var reg 1 w" sout $end
$var reg 1 x" a1 $end
$var reg 1 y" a2 $end
$var reg 1 z" a3 $end
$var reg 1 {" a4 $end
$var reg 1 |" a5 $end
$var reg 1 }" a6 $end
$var reg 1 !# a7 $end
$scope module u0 $end
$upscope $end
$scope module u1 $end
$upscope $end
$upscope $end
$scope module u12 $end
$var reg 1 "# mi $end
$var reg 1 ## sin $end
$var reg 1 $# qi $end
$var reg 1 %# cin $end
$var reg 1 &# cout $end
$var reg 1 '# qs $end
$var reg 1 (# mio $end
$var reg 1 )# sout $end
$var reg 1 *# a1 $end
$var reg 1 +# a2 $end
$var reg 1 ,# a3 $end
$var reg 1 -# a4 $end
$var reg 1 .# a5 $end
$var reg 1 /# a6 $end
$var reg 1 0# a7 $end
$scope module u0 $end
$upscope $end
$scope module u1 $end
$upscope $end
$upscope $end
$scope module u13 $end
$var reg 1 1# mi $end
$var reg 1 2# sin $end
$var reg 1 3# qi $end
$var reg 1 4# cin $end
$var reg 1 5# cout $end
$var reg 1 6# qs $end
$var reg 1 7# mio $end
$var reg 1 8# sout $end
$var reg 1 9# a1 $end
$var reg 1 :# a2 $end
$var reg 1 ;# a3 $end
$var reg 1 <# a4 $end
$var reg 1 =# a5 $end
$var reg 1 ># a6 $end
$var reg 1 ?# a7 $end
$scope module u0 $end
$upscope $end
$scope module u1 $end
$upscope $end
$upscope $end
$scope module u14 $end
$var reg 1 @# mi $end
$var reg 1 A# sin $end
$var reg 1 B# qi $end
$var reg 1 C# cin $end
$var reg 1 D# cout $end
$var reg 1 E# qs $end
$var reg 1 F# mio $end
$var reg 1 G# sout $end
$var reg 1 H# a1 $end
$var reg 1 I# a2 $end
$var reg 1 J# a3 $end
$var reg 1 K# a4 $end
$var reg 1 L# a5 $end
$var reg 1 M# a6 $end
$var reg 1 N# a7 $end
$scope module u0 $end
$upscope $end
$scope module u1 $end
$upscope $end
$upscope $end
$scope module u15 $end
$var reg 1 O# mi $end
$var reg 1 P# sin $end
$var reg 1 Q# qi $end
$var reg 1 R# cin $end
$var reg 1 S# cout $end
$var reg 1 T# qs $end
$var reg 1 U# mio $end
$var reg 1 V# sout $end
$var reg 1 W# a1 $end
$var reg 1 X# a2 $end
$var reg 1 Y# a3 $end
$var reg 1 Z# a4 $end
$var reg 1 [# a5 $end
$var reg 1 \# a6 $end
$var reg 1 ]# a7 $end
$scope module u0 $end
$upscope $end
$scope module u1 $end
$upscope $end
$upscope $end
$upscope $end
$enddefinitions $end
#0
b0000 !
b0000 "
b0000000 #
b0000 $
b0000 %
b0000000 &
b00000000000000000000000000000000000000000000000000000000 '
0(
0)
0*
0+
0,
0-
0.
0/
00
01
02
03
04
05
06
07
08
09
0:
0;
0<
0=
0>
0?
0@
0A
0B
0C
0D
0E
0F
0G
0H
0I
0J
0K
0L
0M
0N
0O
0P
0Q
0R
0S
0T
0U
0V
0W
0X
0Y
0Z
0[
0\
0]
0^
0_
0`
0a
0b
0c
0d
0e
0f
0g
0h
0i
0j
0k
0l
0m
0n
0o
0p
0q
0r
0s
0t
0u
0v
0w
0x
0y
0z
0{
0|
0}
0!"
0""
0#"
0$"
0%"
0&"
0'"
0("
0)"
0*"
0+"
0,"
0-"
0."
0/"
00"
01"
02"
03"
04"
05"
06"
07"
08"
09"
0:"
0;"
0<"
0="
0>"
0?"
0@"
0A"
0B"
0C"
0D"
0E"
0F"
0G"
0H"
0I"
0J"
0K"
0L"
0M"
0N"
0O"
0P"
0Q"
0R"
0S"
0T"
0U"
0V"
0W"
0X"
0Y"
0Z"
0["
0\"
0]"
0^"
0_"
0`"
0a"
0b"
0c"
0d"
0e"
0f"
0g"
0h"
0i"
0j"
0k"
0l"
0m"
0n"
0o"
0p"
0q"
0r"
0s"
0t"
0u"
0v"
0w"
0x"
0y"
0z"
0{"
0|"
0}"
0!#
0"#
0##
0$#
0%#
0&#
0'#
0(#
0)#
0*#
0+#
0,#
0-#
0.#
0/#
00#
01#
02#
03#
04#
05#
06#
07#
08#
09#
0:#
0;#
0<#
0=#
0>#
0?#
0@#
0A#
0B#
0C#
0D#
0E#
0F#
0G#
0H#
0I#
0J#
0K#
0L#
0M#
0N#
0O#
0P#
0Q#
0R#
0S#
0T#
0U#
0V#
0W#
0X#
0Y#
0Z#
0[#
0\#
0]#
#40000000
b0100 "
b0100 %
b00000000000000000100010001000000000000000000000000000000 '
1E"
1H"
1T"
1W"
1c"
1f"
1r"
1u"
#80000000
b0011 !
b1000 "
b0011 $
b1000 %
b00100010001000000000100010000000000100010000000000100100 '
1(
1.
17
1=
1d
1j
1s
1y
1C"
0E"
0H"
1I"
1R"
0T"
0W"
1X"
0c"
0f"
0r"
0u"
1"#
1$#
1'#
1(#
11#
13#
16#
17#
1B#
1E#
1Q#
1T#
#120000000
b0100 "
b0100 %
b00000000000000000100110011000000000100010000000000100100 '
1E"
1H"
1T"
1W"
1c"
1f"
1r"
1u"
0$#
0'#
03#
06#
0B#
0E#
0Q#
0T#
#160000000
b0100 !
b1000 "
b0100 $
b1000 %
b00100010001000001000000000000001000000000000010000000000 '
0(
0.
07
0=
1F
1L
0d
0j
0s
0y
1%"
1+"
0C"
0E"
0H"
0I"
0R"
0T"
0W"
0X"
1a"
0c"
0f"
1g"
0r"
1s"
0u"
0"#
1$#
1'#
0(#
01#
13#
16#
07#
1@#
1B#
1E#
1F#
1Q#
1T#
#200000000
b0100 "
b0100 %
b00000000000000001100010001000001000000000000010000000000 '
1E"
1H"
1T"
1W"
1c"
1f"
1r"
1u"
0$#
0'#
03#
06#
0B#
0E#
0Q#
0T#
#240000000
b0011 !
b1000 "
b0011 $
b1000 %
b00100010001000000000100010000000000100010000000000100100 '
1(
1.
17
1=
0F
0L
1d
1j
1s
1y
0%"
0+"
1C"
0E"
0H"
1I"
1R"
0T"
0W"
1X"
0a"
0c"
0f"
0g"
0r"
0s"
0u"
1"#
1$#
1'#
1(#
11#
13#
16#
17#
0@#
1B#
1E#
0F#
1Q#
1T#
#280000000
b0100 "
b0100 %
b00000000000000000100110011000000000100010000000000100100 '
1E"
1H"
1T"
1W"
1c"
1f"
1r"
1u"
0$#
0'#
03#
06#
0B#
0E#
0Q#
0T#
#320000000
b0100 !
b1000 "
b0100 $
b1000 %
b00100010001000001000000000000001000000000000010000000000 '
0(
0.
07
0=
1F
1L
0d
0j
0s
0y
1%"
1+"
0C"
0E"
0H"
0I"
0R"
0T"
0W"
0X"
1a"
0c"
0f"
1g"
0r"
1s"
0u"
0"#
1$#
1'#
0(#
01#
13#
16#
07#
1@#
1B#
1E#
1F#
1Q#
1T#
#360000000
b0100 "
b0100 %
b00000000000000001100010001000001000000000000010000000000 '
1E"
1H"
1T"
1W"
1c"
1f"
1r"
1u"
0$#
0'#
03#
06#
0B#
0E#
0Q#
0T#
