compuertas/adder4/tb_adder4.vcd
$date
  Mon Mar  6 01:41:48 2017
$end
$version
  GHDL v0
$end
$timescale
  1 fs
$end
$var reg 4 ! botonx[3:0] $end
$var reg 4 " botony[3:0] $end
$var reg 1 # botoncin $end
$var reg 4 $ ledr[3:0] $end
$var reg 1 % ledcout $end
$scope module u0 $end
$var reg 4 & x[3:0] $end
$var reg 4 ' y[3:0] $end
$var reg 1 ( cin $end
$var reg 1 ) cout $end
$var reg 4 * r[3:0] $end
$var reg 1 + c0 $end
$var reg 1 , c1 $end
$var reg 1 - c2 $end
$var reg 1 . c3 $end
$var reg 1 / c4 $end
$scope module u0 $end
$var reg 1 0 x $end
$var reg 1 1 y $end
$var reg 1 2 cin $end
$var reg 1 3 cout $end
$var reg 1 4 r $end
$upscope $end
$scope module u1 $end
$var reg 1 5 x $end
$var reg 1 6 y $end
$var reg 1 7 cin $end
$var reg 1 8 cout $end
$var reg 1 9 r $end
$upscope $end
$scope module u2 $end
$var reg 1 : x $end
$var reg 1 ; y $end
$var reg 1 < cin $end
$var reg 1 = cout $end
$var reg 1 > r $end
$upscope $end
$scope module u3 $end
$var reg 1 ? x $end
$var reg 1 @ y $end
$var reg 1 A cin $end
$var reg 1 B cout $end
$var reg 1 C r $end
$upscope $end
$upscope $end
$enddefinitions $end
#0
b0000 !
b0000 "
0#
b0000 $
0%
b0000 &
b0000 '
0(
0)
b0000 *
0+
0,
0-
0.
0/
00
01
02
03
04
05
06
07
08
09
0:
0;
0<
0=
0>
0?
0@
0A
0B
0C
#20000000
#40000000
b0001 "
b0001 $
b0001 '
b0001 *
11
14
#60000000
b0010 "
b0010 $
b0010 '
b0010 *
01
04
16
19
#80000000
b0001 !
b0011 "
1#
b0101 $
b0001 &
b0011 '
1(
b0101 *
1,
1-
10
11
12
13
14
17
18
09
1<
1>
#100000000
b0100 "
b0110 $
b0100 '
b0110 *
0-
0.
01
04
06
08
19
1;
0<
0=
1>
0A
0C
#120000000
b0000 !
b1000 "
b1001 $
b0000 &
b1000 '
b1001 *
0,
00
03
14
07
09
0;
0>
1@
1C
#140000000
b1001 "
b1010 $
b1001 '
b1010 *
1,
11
13
04
17
19
#160000000
b0001 !
b1111 "
0#
b0000 $
1%
b0001 &
b1111 '
0(
1)
b0000 *
1-
1.
10
02
16
18
09
1;
1<
1=
0>
1A
1B
0C
#180000000
b0000 "
b0001 $
0%
b0000 '
0)
b0001 *
0,
0-
0.
01
03
14
06
07
08
09
0;
0<
0=
0>
0@
0A
0B
0C
#200000000
b0000 !
b0001 "
b0000 &
b0001 '
00
11
#220000000
b0010 "
b0010 $
b0010 '
b0010 *
01
04
16
19
#240000000
b0001 !
b0011 "
1#
b0101 $
b0001 &
b0011 '
1(
b0101 *
1,
1-
10
11
12
13
14
17
18
09
1<
1>
#260000000
b0100 "
b0110 $
b0100 '
b0110 *
0-
0.
01
04
06
08
19
1;
0<
0=
1>
0A
0C
#280000000
b0000 !
b1000 "
b1001 $
b0000 &
b1000 '
b1001 *
0,
00
03
14
07
09
0;
0>
1@
1C
#300000000
b1001 "
b1010 $
b1001 '
b1010 *
1,
11
13
04
17
19
#320000000
b0001 !
b1111 "
0#
b0000 $
1%
b0001 &
b1111 '
0(
1)
b0000 *
1-
1.
10
02
16
18
09
1;
1<
1=
0>
1A
1B
0C
#340000000
b0000 "
b0001 $
0%
b0000 '
0)
b0001 *
0,
0-
0.
01
03
14
06
07
08
09
0;
0<
0=
0>
0@
0A
0B
0C
#360000000
b0000 !
b0001 "
b0000 &
b0001 '
00
11
#380000000
b0010 "
b0010 $
b0010 '
b0010 *
01
04
16
19
