compuertas/dl_mulmat4_Edgar_Humberto_Perez1/um/tb_um.vcd
$date
  Fri Mar 10 17:28:54 2017
$end
$version
  GHDL v0
$end
$timescale
  1 fs
$end
$var reg 1 ! botonmi $end
$var reg 1 " botonsin $end
$var reg 1 # botoncin $end
$var reg 1 $ botonqi $end
$var reg 1 % ledcout $end
$var reg 1 & ledmio $end
$var reg 1 ' ledqs $end
$var reg 1 ( ledsout $end
$scope module u0 $end
$var reg 1 ) mi $end
$var reg 1 * sin $end
$var reg 1 + qi $end
$var reg 1 , cin $end
$var reg 1 - cout $end
$var reg 1 . qs $end
$var reg 1 / mio $end
$var reg 1 0 sout $end
$var reg 1 1 a1 $end
$var reg 1 2 a2 $end
$var reg 1 3 a3 $end
$var reg 1 4 a4 $end
$var reg 1 5 a5 $end
$var reg 1 6 a6 $end
$var reg 1 7 a7 $end
$scope module u0 $end
$var reg 1 8 x $end
$var reg 1 9 y $end
$var reg 1 : f $end
$upscope $end
$scope module u1 $end
$var reg 1 ; x $end
$var reg 1 < y $end
$var reg 1 = cin $end
$var reg 1 > cout $end
$var reg 1 ? r $end
$upscope $end
$upscope $end
$enddefinitions $end
#0
0!
0"
0#
0$
0%
0&
0'
0(
0)
0*
0+
0,
0-
0.
0/
00
01
02
03
04
05
06
07
08
09
0:
0;
0<
0=
0>
0?
#10000000
#20000000
1#
1(
1,
10
1=
1?
#30000000
0#
0(
0,
00
0=
0?
#40000000
1"
1#
1%
1*
1,
1-
1<
1=
1>
#50000000
0#
0%
1(
0,
0-
10
0=
0>
1?
#60000000
0"
1#
0*
1,
0<
1=
#70000000
0#
0(
0,
00
0=
0?
#80000000
1"
1#
1$
1%
1'
1*
1+
1,
1-
1.
18
1<
1=
1>
#90000000
0#
0%
1(
0,
0-
10
0=
0>
1?
#100000000
0"
1#
0*
1,
0<
1=
#110000000
0#
0(
0,
00
0=
0?
#120000000
1"
1#
0$
1%
0'
1*
0+
1,
1-
0.
08
1<
1=
1>
#130000000
0#
0%
1(
0,
0-
10
0=
0>
1?
#140000000
0"
1#
0*
1,
0<
1=
#150000000
0#
0(
0,
00
0=
0?
#160000000
1!
1"
1#
1$
1%
1&
1'
1(
1)
1*
1+
1,
1-
1.
1/
10
11
18
19
1:
1;
1<
1=
1>
1?
#170000000
0#
0(
0,
00
0=
0?
#180000000
0"
1#
0*
1,
0<
1=
#190000000
0#
0%
1(
0,
0-
10
0=
0>
1?
#200000000
1"
1#
0$
1%
0'
0(
1*
0+
1,
1-
0.
00
01
08
0:
0;
1<
1=
1>
0?
#210000000
0#
0%
1(
0,
0-
10
0=
0>
1?
#220000000
0"
1#
0*
1,
0<
1=
#230000000
0#
0(
0,
00
0=
0?
#240000000
0!
1"
1#
1$
1%
0&
1'
0)
1*
1+
1,
1-
1.
0/
18
09
1<
1=
1>
#250000000
0#
0%
1(
0,
0-
10
0=
0>
1?
#260000000
0"
1#
0*
1,
0<
1=
#270000000
0#
0(
0,
00
0=
0?
#280000000
1"
1#
0$
1%
0'
1*
0+
1,
1-
0.
08
1<
1=
1>
#290000000
0#
0%
1(
0,
0-
10
0=
0>
1?
#300000000
0"
1#
0*
1,
0<
1=
#310000000
0#
0(
0,
00
0=
0?
#320000000
1!
1"
1#
1$
1%
1&
1'
1(
1)
1*
1+
1,
1-
1.
1/
10
11
18
19
1:
1;
1<
1=
1>
1?
#330000000
0#
0(
0,
00
0=
0?
#340000000
0"
1#
0*
1,
0<
1=
#350000000
0#
0%
1(
0,
0-
10
0=
0>
1?
#360000000
1"
1#
0$
1%
0'
0(
1*
0+
1,
1-
0.
00
01
08
0:
0;
1<
1=
1>
0?
#370000000
0#
0%
1(
0,
0-
10
0=
0>
1?
#380000000
0"
1#
0*
1,
0<
1=
#390000000
0#
0(
0,
00
0=
0?
