compuertas/decobin2hex7seg/estructural/tb_decobin2hex7seg.vcd
$date
  Mon Feb 20 07:33:25 2017
$end
$version
  GHDL v0
$end
$timescale
  1 fs
$end
$var reg 4 ! botones[3:0] $end
$var reg 7 " leds[6:0] $end
$scope module u0 $end
$var reg 4 # ent[3:0] $end
$var reg 7 $ sal[6:0] $end
$var reg 1 % a0 $end
$var reg 1 & a1 $end
$var reg 1 ' a2 $end
$var reg 1 ( a3 $end
$var reg 1 ) a4 $end
$var reg 1 * a5 $end
$var reg 1 + a6 $end
$var reg 1 , a7 $end
$var reg 1 - a8 $end
$var reg 1 . a9 $end
$var reg 1 / a10 $end
$var reg 1 0 a11 $end
$var reg 1 1 a12 $end
$var reg 1 2 a13 $end
$var reg 1 3 a14 $end
$var reg 1 4 a15 $end
$var reg 1 5 a16 $end
$var reg 1 6 a17 $end
$var reg 1 7 a18 $end
$var reg 1 8 a19 $end
$var reg 1 9 a20 $end
$var reg 1 : a21 $end
$var reg 1 ; a22 $end
$var reg 1 < a23 $end
$var reg 1 = a24 $end
$var reg 1 > a25 $end
$var reg 1 ? a26 $end
$var reg 1 @ a27 $end
$var reg 1 A a28 $end
$var reg 1 B a29 $end
$var reg 1 C a30 $end
$var reg 1 D a31 $end
$var reg 1 E a32 $end
$var reg 1 F a33 $end
$var reg 1 G a34 $end
$scope module u0 $end
$var reg 1 H x $end
$var reg 1 I f $end
$upscope $end
$scope module u1 $end
$var reg 1 J x $end
$var reg 1 K f $end
$upscope $end
$scope module u2 $end
$var reg 1 L x $end
$var reg 1 M f $end
$upscope $end
$scope module u3 $end
$var reg 1 N x $end
$var reg 1 O f $end
$upscope $end
$scope module u4 $end
$var reg 1 P x $end
$var reg 1 Q y $end
$var reg 1 R z $end
$var reg 1 S f $end
$upscope $end
$scope module u5 $end
$var reg 1 T x $end
$var reg 1 U y $end
$var reg 1 V z $end
$var reg 1 W f $end
$upscope $end
$scope module u6 $end
$upscope $end
$scope module u7 $end
$upscope $end
$scope module u8 $end
$var reg 1 X x $end
$var reg 1 Y y $end
$var reg 1 Z z $end
$var reg 1 [ w $end
$var reg 1 \ f $end
$upscope $end
$scope module u9 $end
$var reg 1 ] x $end
$var reg 1 ^ y $end
$var reg 1 _ z $end
$var reg 1 ` f $end
$upscope $end
$scope module u10 $end
$var reg 1 a x $end
$var reg 1 b y $end
$var reg 1 c z $end
$var reg 1 d f $end
$upscope $end
$scope module u11 $end
$upscope $end
$scope module u12 $end
$var reg 1 e x $end
$var reg 1 f y $end
$var reg 1 g z $end
$var reg 1 h f $end
$upscope $end
$scope module u13 $end
$var reg 1 i x $end
$var reg 1 j y $end
$var reg 1 k z $end
$var reg 1 l w $end
$var reg 1 m f $end
$upscope $end
$scope module u14 $end
$var reg 1 n x $end
$var reg 1 o y $end
$var reg 1 p z $end
$var reg 1 q f $end
$upscope $end
$scope module u15 $end
$var reg 1 r x $end
$var reg 1 s y $end
$var reg 1 t z $end
$var reg 1 u f $end
$upscope $end
$scope module u16 $end
$var reg 1 v x $end
$var reg 1 w y $end
$var reg 1 x z $end
$var reg 1 y f $end
$upscope $end
$scope module u17 $end
$var reg 1 z x $end
$var reg 1 { y $end
$var reg 1 | z $end
$var reg 1 } f $end
$upscope $end
$scope module u18 $end
$var reg 1 !" x $end
$var reg 1 "" y $end
$var reg 1 #" z $end
$var reg 1 $" f $end
$upscope $end
$scope module u19 $end
$upscope $end
$scope module u20 $end
$upscope $end
$scope module u21 $end
$upscope $end
$scope module u22 $end
$var reg 1 %" x $end
$var reg 1 &" y $end
$var reg 1 '" f $end
$upscope $end
$scope module u23 $end
$var reg 1 (" x $end
$var reg 1 )" y $end
$var reg 1 *" z $end
$var reg 1 +" w $end
$var reg 1 ," f $end
$upscope $end
$scope module u24 $end
$var reg 1 -" x $end
$var reg 1 ." y $end
$var reg 1 /" z $end
$var reg 1 0" f $end
$upscope $end
$scope module u25 $end
$var reg 1 1" x $end
$var reg 1 2" y $end
$var reg 1 3" z $end
$var reg 1 4" f $end
$upscope $end
$scope module u26 $end
$var reg 1 5" x $end
$var reg 1 6" y $end
$var reg 1 7" z $end
$var reg 1 8" f $end
$upscope $end
$scope module u27 $end
$var reg 1 9" x $end
$var reg 1 :" y $end
$var reg 1 ;" z $end
$var reg 1 <" f $end
$upscope $end
$scope module u28 $end
$var reg 1 =" x $end
$var reg 1 >" y $end
$var reg 1 ?" z $end
$var reg 1 @" f $end
$upscope $end
$scope module u29 $end
$var reg 1 A" x $end
$var reg 1 B" y $end
$var reg 1 C" z $end
$var reg 1 D" f $end
$upscope $end
$scope module u30 $end
$upscope $end
$scope module u31 $end
$var reg 1 E" x $end
$var reg 1 F" y $end
$var reg 1 G" z $end
$var reg 1 H" w $end
$var reg 1 I" f $end
$upscope $end
$scope module u32 $end
$var reg 1 J" x $end
$var reg 1 K" y $end
$var reg 1 L" z $end
$var reg 1 M" f $end
$upscope $end
$scope module u33 $end
$var reg 1 N" x $end
$var reg 1 O" y $end
$var reg 1 P" z $end
$var reg 1 Q" f $end
$upscope $end
$scope module u34 $end
$upscope $end
$scope module u35 $end
$var reg 1 R" x $end
$var reg 1 S" y $end
$var reg 1 T" z $end
$var reg 1 U" f $end
$upscope $end
$upscope $end
$enddefinitions $end
#0
b0000 !
b0010001 "
b0000 #
b0010001 $
0%
0&
0'
0(
1)
1*
1+
1,
0-
0.
0/
00
01
02
03
04
05
16
07
08
09
0:
0;
0<
0=
0>
0?
0@
0A
0B
1C
1D
0E
0F
0G
0H
1I
0J
1K
0L
1M
0N
1O
0P
0Q
0R
0S
0T
0U
0V
0W
0X
0Y
0Z
0[
0\
0]
0^
0_
0`
0a
0b
1c
0d
1e
0f
0g
0h
0i
0j
0k
0l
0m
0n
0o
0p
0q
1r
1s
1t
1u
1v
0w
0x
0y
0z
1{
0|
1}
1!"
1""
0#"
0$"
1%"
0&"
0'"
0("
0)"
0*"
0+"
0,"
0-"
1."
1/"
00"
01"
12"
13"
04"
05"
06"
07"
08"
09"
0:"
1;"
0<"
1="
1>"
0?"
0@"
0A"
1B"
1C"
0D"
0E"
0F"
0G"
0H"
0I"
1J"
1K"
1L"
1M"
1N"
1O"
1P"
1Q"
1R"
1S"
0T"
1U"
#20000000
b1000 !
b0000000 "
b1000 #
b0000000 $
1%
0)
06
0C
0D
1H
0I
1V
1]
1f
1p
0t
0u
1x
0{
0}
0%"
03"
0;"
0="
0C"
0J"
0M"
0N"
0Q"
0R"
0S"
0U"
#40000000
b0100 !
b0000100 "
b0100 #
b0000100 $
0%
1&
1)
0*
1>
0H
1I
1J
0K
1P
1T
0V
0]
1a
0f
1g
1o
0p
0s
1t
1w
0x
0!"
1%"
0/"
11"
13"
14"
17"
18"
1;"
1="
0>"
0B"
1C"
1J"
0K"
1N"
0O"
#60000000
b1100 !
b0110000 "
b1100 #
b0110000 $
1%
0)
14
17
0>
1H
0I
1V
1]
1f
1h
1l
1m
1p
0t
1x
1y
1|
1}
0%"
03"
04"
07"
08"
0;"
0="
0C"
0J"
0N"
#80000000
b0010 !
b0010011 "
b0010 #
b0010011 $
0%
0&
1'
1)
1*
0+
04
16
07
1@
1D
0H
1I
0J
1K
1L
0M
0P
1Q
0T
0V
0]
1^
0a
1b
0f
0g
0h
0l
0m
1n
0o
0p
1s
1t
1u
0w
0x
0y
1{
0|
1}
1!"
0""
1%"
0."
1/"
01"
02"
13"
19"
1;"
1="
1>"
1?"
1@"
1B"
1C"
1F"
1I"
1J"
1K"
0L"
1N"
1O"
1Q"
1S"
1U"
#100000000
b1010 !
b0000000 "
b1010 #
b0000000 $
1%
0)
06
0@
0D
1H
0I
1V
1]
1f
1p
0t
0u
1x
0{
0}
0%"
03"
0;"
0="
0@"
0C"
0F"
0I"
0J"
0N"
0Q"
0S"
0U"
#120000000
b0110 !
b0100000 "
b0110 #
b0100000 $
0%
1&
1)
0*
12
0H
1I
1J
0K
1P
1T
0V
0]
1a
1d
0f
1g
1j
1m
1o
0p
0s
1t
1w
0x
0!"
1%"
0/"
11"
13"
1;"
1="
0>"
0B"
1C"
1J"
0K"
1N"
0O"
#140000000
b1110 !
b0110000 "
b1110 #
b0110000 $
1%
0)
14
15
17
1H
0I
1V
1]
1f
1h
1l
1p
1q
0t
1x
1y
1z
1|
1}
0%"
03"
0;"
0="
0C"
0J"
0N"
#160000000
b0001 !
b0001111 "
b0001 #
b0001111 $
0%
0&
0'
1(
1)
1*
1+
0,
02
04
05
07
18
1<
1=
1A
1C
0H
1I
0J
1K
0L
1M
1N
0O
0P
0Q
1R
0T
1U
0V
0]
0^
1_
0a
0b
0c
0d
0e
0f
0g
0h
0j
0l
0m
0n
0o
0p
0q
0r
1s
1t
0v
0w
0x
0y
0z
0|
0}
1!"
1""
1#"
1$"
1%"
1&"
1'"
1("
1,"
1-"
1."
1/"
10"
01"
12"
13"
15"
16"
18"
09"
1:"
1;"
1="
1>"
0?"
1A"
1B"
1C"
1D"
1G"
1I"
1J"
1K"
1L"
1M"
1N"
1O"
0P"
1R"
1U"
#180000000
b1001 !
b0001100 "
b1001 #
b0001100 $
1%
0)
0<
0A
0C
1H
0I
1V
1]
1f
1p
0t
1x
0%"
0'"
03"
05"
0;"
0="
0C"
0D"
0G"
0I"
0J"
0M"
0N"
0R"
0U"
#200000000
b0101 !
b0000100 "
b0101 #
b0000100 $
0%
1&
1)
0*
08
1<
0=
1>
0H
1I
1J
0K
1P
1T
0V
0]
1a
0f
1g
1o
0p
0s
1t
1w
0x
0!"
0$"
1%"
1'"
0("
0,"
0/"
00"
11"
13"
14"
15"
06"
17"
1;"
1="
0>"
0B"
1C"
1J"
0K"
1N"
0O"
#220000000
b1101 !
b1000000 "
b1101 #
b1000000 $
1%
0)
1.
0<
0>
1H
0I
1V
1W
1Y
1\
1]
1f
1p
0t
1x
0%"
0'"
03"
04"
05"
07"
08"
0;"
0="
0C"
0J"
0N"
#240000000
b0011 !
b0000110 "
b0011 #
b0000110 $
0%
0&
1'
1)
1*
0+
0.
1<
1?
1@
1A
0H
1I
0J
1K
1L
0M
0P
1Q
0T
0V
0W
0Y
0\
0]
1^
0a
1b
0f
0g
1n
0o
0p
1s
1t
0w
0x
1!"
0""
1%"
1'"
0."
1/"
01"
02"
13"
15"
18"
19"
1;"
1<"
1="
1>"
1?"
1@"
1B"
1C"
1D"
1E"
1F"
1G"
1I"
1J"
1K"
0L"
1N"
1O"
#260000000
b1011 !
b0100000 "
b1011 #
b0100000 $
1%
0)
11
0<
0?
0@
0A
1H
0I
1V
1]
1`
1f
1i
1m
1p
0t
1x
0%"
0'"
03"
05"
08"
0;"
0<"
0="
0@"
0C"
0D"
0E"
0F"
0G"
0I"
0J"
0N"
#280000000
b0111 !
b1000110 "
b0111 #
b1000110 $
0%
1&
1)
0*
1-
01
1<
1?
0H
1I
1J
0K
1P
1S
1T
0V
1X
1\
0]
0`
1a
0f
1g
0i
0m
1o
0p
0s
1t
1w
0x
0!"
1%"
1'"
0/"
11"
13"
15"
18"
1;"
1<"
1="
0>"
0B"
1C"
1E"
1I"
1J"
0K"
1N"
0O"
#300000000
b1111 !
b1110000 "
b1111 #
b1110000 $
1%
0)
1.
11
15
0<
0?
1H
0I
1V
1W
1Y
1]
1`
1f
1i
1m
1p
1q
0t
1x
1z
1}
0%"
0'"
03"
05"
08"
0;"
0<"
0="
0C"
0E"
0I"
0J"
0N"
#320000000
b0000 !
b0010001 "
b0000 #
b0010001 $
0%
0&
0'
0(
1)
1*
1+
1,
0-
0.
01
05
16
1C
1D
0H
1I
0J
1K
0L
1M
0N
1O
0P
0Q
0R
0S
0T
0U
0V
0W
0X
0Y
0\
0]
0^
0_
0`
0a
0b
1c
1e
0f
0g
0i
0m
0n
0o
0p
0q
1r
1s
1t
1u
1v
0w
0x
0z
1{
1}
1!"
1""
0#"
1%"
0&"
0-"
1."
1/"
01"
12"
13"
09"
0:"
1;"
1="
1>"
0?"
0A"
1B"
1C"
1J"
1K"
1L"
1M"
1N"
1O"
1P"
1Q"
1R"
1S"
1U"
#340000000
b1000 !
b0000000 "
b1000 #
b0000000 $
1%
0)
06
0C
0D
1H
0I
1V
1]
1f
1p
0t
0u
1x
0{
0}
0%"
03"
0;"
0="
0C"
0J"
0M"
0N"
0Q"
0R"
0S"
0U"
#360000000
b0100 !
b0000100 "
b0100 #
b0000100 $
0%
1&
1)
0*
1>
0H
1I
1J
0K
1P
1T
0V
0]
1a
0f
1g
1o
0p
0s
1t
1w
0x
0!"
1%"
0/"
11"
13"
14"
17"
18"
1;"
1="
0>"
0B"
1C"
1J"
0K"
1N"
0O"
#380000000
b1100 !
b0110000 "
b1100 #
b0110000 $
1%
0)
14
17
0>
1H
0I
1V
1]
1f
1h
1l
1m
1p
0t
1x
1y
1|
1}
0%"
03"
04"
07"
08"
0;"
0="
0C"
0J"
0N"
#400000000
b0010 !
b0010011 "
b0010 #
b0010011 $
0%
0&
1'
1)
1*
0+
04
16
07
1@
1D
0H
1I
0J
1K
1L
0M
0P
1Q
0T
0V
0]
1^
0a
1b
0f
0g
0h
0l
0m
1n
0o
0p
1s
1t
1u
0w
0x
0y
1{
0|
1}
1!"
0""
1%"
0."
1/"
01"
02"
13"
19"
1;"
1="
1>"
1?"
1@"
1B"
1C"
1F"
1I"
1J"
1K"
0L"
1N"
1O"
1Q"
1S"
1U"
#420000000
b1010 !
b0000000 "
b1010 #
b0000000 $
1%
0)
06
0@
0D
1H
0I
1V
1]
1f
1p
0t
0u
1x
0{
0}
0%"
03"
0;"
0="
0@"
0C"
0F"
0I"
0J"
0N"
0Q"
0S"
0U"
#440000000
b0110 !
b0100000 "
b0110 #
b0100000 $
0%
1&
1)
0*
12
0H
1I
1J
0K
1P
1T
0V
0]
1a
1d
0f
1g
1j
1m
1o
0p
0s
1t
1w
0x
0!"
1%"
0/"
11"
13"
1;"
1="
0>"
0B"
1C"
1J"
0K"
1N"
0O"
#460000000
b1110 !
b0110000 "
b1110 #
b0110000 $
1%
0)
14
15
17
1H
0I
1V
1]
1f
1h
1l
1p
1q
0t
1x
1y
1z
1|
1}
0%"
03"
0;"
0="
0C"
0J"
0N"
#480000000
b0001 !
b0001111 "
b0001 #
b0001111 $
0%
0&
0'
1(
1)
1*
1+
0,
02
04
05
07
18
1<
1=
1A
1C
0H
1I
0J
1K
0L
1M
1N
0O
0P
0Q
1R
0T
1U
0V
0]
0^
1_
0a
0b
0c
0d
0e
0f
0g
0h
0j
0l
0m
0n
0o
0p
0q
0r
1s
1t
0v
0w
0x
0y
0z
0|
0}
1!"
1""
1#"
1$"
1%"
1&"
1'"
1("
1,"
1-"
1."
1/"
10"
01"
12"
13"
15"
16"
18"
09"
1:"
1;"
1="
1>"
0?"
1A"
1B"
1C"
1D"
1G"
1I"
1J"
1K"
1L"
1M"
1N"
1O"
0P"
1R"
1U"
#500000000
b1001 !
b0001100 "
b1001 #
b0001100 $
1%
0)
0<
0A
0C
1H
0I
1V
1]
1f
1p
0t
1x
0%"
0'"
03"
05"
0;"
0="
0C"
0D"
0G"
0I"
0J"
0M"
0N"
0R"
0U"
#520000000
b0101 !
b0000100 "
b0101 #
b0000100 $
0%
1&
1)
0*
08
1<
0=
1>
0H
1I
1J
0K
1P
1T
0V
0]
1a
0f
1g
1o
0p
0s
1t
1w
0x
0!"
0$"
1%"
1'"
0("
0,"
0/"
00"
11"
13"
14"
15"
06"
17"
1;"
1="
0>"
0B"
1C"
1J"
0K"
1N"
0O"
#540000000
b1101 !
b1000000 "
b1101 #
b1000000 $
1%
0)
1.
0<
0>
1H
0I
1V
1W
1Y
1\
1]
1f
1p
0t
1x
0%"
0'"
03"
04"
05"
07"
08"
0;"
0="
0C"
0J"
0N"
#560000000
b0011 !
b0000110 "
b0011 #
b0000110 $
0%
0&
1'
1)
1*
0+
0.
1<
1?
1@
1A
0H
1I
0J
1K
1L
0M
0P
1Q
0T
0V
0W
0Y
0\
0]
1^
0a
1b
0f
0g
1n
0o
0p
1s
1t
0w
0x
1!"
0""
1%"
1'"
0."
1/"
01"
02"
13"
15"
18"
19"
1;"
1<"
1="
1>"
1?"
1@"
1B"
1C"
1D"
1E"
1F"
1G"
1I"
1J"
1K"
0L"
1N"
1O"
#580000000
b1011 !
b0100000 "
b1011 #
b0100000 $
1%
0)
11
0<
0?
0@
0A
1H
0I
1V
1]
1`
1f
1i
1m
1p
0t
1x
0%"
0'"
03"
05"
08"
0;"
0<"
0="
0@"
0C"
0D"
0E"
0F"
0G"
0I"
0J"
0N"
